Our love in text messages
…
I started by downloading our WhatsApp chat history.  Heres what it looks like:

chat <- read_csv("_chat.txt", col_names = c("date", "text"))
chat

## # A tibble: 17,504 x 2
##    date        text                                                        
##    <chr>       <chr>                                                       
##  1 [2017-10-15 "09:16:57] Stnos \U0001f60d: <U+200E>Messages to this chat and ca~ 
##  2 [2017-10-15 09:17:12] Gil Henriques: Did you call me?                   
##  3 [2017-10-15 "09:17:13] Stnos \U0001f60d: <U+200E>Missed video call"            
##  4 [2017-10-15 "09:17:20] Stnos \U0001f60d: Yeah"                         
##  5 [2017-10-15 "09:17:28] Stnos \U0001f60d: Why doesn't it work? :O"      
##  6 [2017-10-15 09:17:31] Gil Henriques: I called you back but you didn't p~
##  7 [2017-10-15 09:17:35] Gil Henriques: Will try again                     
##  8 [2017-10-15 09:18:14] Gil Henriques: Weird                              
##  9 [2017-10-15 09:18:24] Gil Henriques: Called you three times now you don~
## 10 [2017-10-15 09:18:46] Gil Henriques: Anyway what did you want to tell m~
## # ... with 17,494 more rows

As you can see, its a mess! We need to clean it up a little before we continue. 

chat <- chat %>% 
  filter(!str_detect(text, "omitted")) %>% # Remove messages saying "Image omitted", "video omitted", etc
  unnest_tokens(word, text) %>% # Separates each word into a row and makes them lowercase
  filter(!(word %in% c("gil", "henriques", "stnos", "linnea", "sandell"))) %>% # remove usernames
  filter(!str_detect(word, "[0-9]")) %>%  # remove numbers
  filter(!str_detect(word, "'")) %>%  # remove contractions
  filter(!str_detect(word, "^[a-z]$")) %>% # remove single letters (doesn't work with accents)
  mutate(date = ymd(date))
chat

## # A tibble: 98,899 x 2
##    date       word    
##    <date>     <chr>   
##  1 2017-10-15 messages
##  2 2017-10-15 to      
##  3 2017-10-15 this    
##  4 2017-10-15 chat    
##  5 2017-10-15 and     
##  6 2017-10-15 calls   
##  7 2017-10-15 are     
##  8 2017-10-15 now     
##  9 2017-10-15 secured 
## 10 2017-10-15 with    
## # ... with 98,889 more rows
Now, lets see what we can find out from here!

Common words

What words do we use most often?

wordlist <- chat %>% 
  select(word) %>% 
  group_by(word) %>% 
  summarise(n = n()) %>% 
  ungroup()

wordlist %>% arrange(desc(n))

## # A tibble: 7,551 x 2
##    word      n
##    <chr> <int>
##  1 you    3350
##  2 the    3305
##  3 to     3200
##  4 and    2225
##  5 so     1355
##  6 in     1337
##  7 it     1283
##  8 for    1145
##  9 is     1137
## 10 will   1063
## # ... with 7,541 more rows

Many common words are simply words that are used often, such as you, the, or for. Lets get rid of some of these:

wordlist <- wordlist %>% 
  filter(!word %in% stop_words[stop_words$lexicon == "snowball",]$word)
wordlist %>% arrange(desc(n))

## # A tibble: 7,432 x 2
##    word      n
##    <chr> <int>
##  1 will   1063
##  2 can     890
##  3 go      799
##  4 now     795
##  5 home    774
##  6 ok      774
##  7 just    562
##  8 like    532
##  9 good    487
## 10 get     471
## # ... with 7,422 more rows
…
I downloaded a corpus of 4934 college student American English SMS text messages created by Daniel R. ODay of the Cyber Security Lab at Purdue University.

corpus <- read_delim("texts.txt", "\t", escape_double = FALSE, trim_ws = TRUE) %>% 
  unnest_tokens(word, message_body) %>% # Separates each word into a row and makes them lowercase
  filter(!str_detect(word, "[0-9]"), class == 0) %>%  # remove numbers
  select(word) %>% 
  group_by(word) %>% 
  summarise(n = n()) %>% 
  ungroup() %>% 
  arrange(desc(n)) %>% 
  mutate(source = "corpus") %>% 
  filter(!word %in% stop_words[stop_words$lexicon == "snowball",]$word) 
corpus

## # A tibble: 4,130 x 3
##    word      n source
##    <chr> <int> <chr> 
##  1 u       524 corpus
##  2 ok      328 corpus
##  3 will    321 corpus
##  4 can     250 corpus
##  5 just    248 corpus
##  6 get     213 corpus
##  7 lol     194 corpus
##  8 know    185 corpus
##  9 now     165 corpus
## 10 going   153 corpus
## # ... with 4,120 more rows
…
bigrams_separated <- chat_bigrams %>%
  separate(bigram, c("word1", "word2"), sep = " ")

bigrams_filtered <- bigrams_separated %>%
  filter(!word1 %in% stop_words[stop_words$lexicon == "snowball",]$word) %>%
  filter(!word2 %in% stop_words[stop_words$lexicon == "snowball",]$word)

bigram_counts <- bigrams_filtered %>% 
  count(word1, word2, sort = TRUE)

bigram_counts

## # A tibble: 19,878 x 3
##    word1   word2       n
##    <chr>   <chr>   <int>
##  1 image   omitted   645
##  2 omitted image     478
##  3 go      home      199
##  4 will    go        122
##  5 going   home       84
##  6 home    now        83
##  7 sticker omitted    76
##  8 can     go         75
##  9 right   now        54
## 10 feel    like       50
## # ... with 19,868 more rows
…
The first thing we can do is look at how frequently each of us uses each word:

frequency <- chat_by_person %>% 
  group_by(person) %>% 
  count(word, sort = TRUE) %>% 
  left_join(chat_by_person %>% group_by(person) %>% summarise(total = n())) %>% 
  mutate(freq = n/total) %>% 
  select(person, word, freq) %>% 
  pivot_wider(names_from = person, values_from = freq) %>% 
  filter(nchar(word) > 1) %>% 
  drop_na()
frequency

## # A tibble: 2,607 x 3
##    word      Gil  Linnea
##    <chr>   <dbl>   <dbl>
##  1 will  0.0258  0.0105 
##  2 now   0.0173  0.0103 
##  3 can   0.0154  0.0157 
##  4 ok    0.0111  0.0162 
##  5 go    0.0143  0.0136 
##  6 home  0.0119  0.0154 
##  7 just  0.00846 0.0113 
##  8 like  0.00799 0.0107 
##  9 good  0.00866 0.00838
## 10 get   0.00728 0.00918
## # ... with 2,597 more rows
…
A better way to quantify the words that are more likely to come from me or from you is using a log odds ratio:

word_ratios <- chat_by_person %>% 
  count(word, person) %>%
  filter(nchar(word) > 1) %>% 
  group_by(word) %>%
  filter(sum(n) >= 10) %>% 
  ungroup() %>%
  spread(person, n, fill = 0) %>%
  mutate_if(is.numeric, list(~(. + 1) / (sum(.) + 1))) %>%
  mutate(logratio = log(Gil / Linnea)) %>%
  arrange(desc(logratio))
word_ratios

## # A tibble: 876 x 4
##    word          Gil    Linnea logratio
##    <chr>       <dbl>     <dbl>    <dbl>
##  1 ooh      0.000819 0.0000489     2.82
##  2 hahah    0.000637 0.0000489     2.57
##  3 iris     0.000637 0.0000489     2.57
##  4 stnos   0.000637 0.0000489     2.57
##  5 boarding 0.000592 0.0000489     2.49
##  6 hahahah  0.000592 0.0000489     2.49
##  7 although 0.000546 0.0000489     2.41
##  8 depart   0.000546 0.0000489     2.41
##  9 michael  0.00105  0.0000979     2.37
## 10 queue    0.000501 0.0000489     2.33
## # ... with 866 more rows

Here are some words that are about equally likely:

word_ratios %>% 
  arrange(abs(logratio))

## # A tibble: 876 x 4
##    word         Gil   Linnea logratio
##    <chr>      <dbl>    <dbl>    <dbl>
##  1 episode 0.000637 0.000636  0.00192
##  2 talking 0.000683 0.000685 -0.00320
##  3 found   0.00123  0.00122   0.00477
##  4 rest    0.00182  0.00181   0.00577
##  5 work    0.00542  0.00538   0.00645
##  6 able    0.000728 0.000734 -0.00765
##  7 break   0.000728 0.000734 -0.00765
##  8 hug     0.000592 0.000587  0.00785
##  9 plan    0.00118  0.00117   0.00785
## 10 real    0.000592 0.000587  0.00785
## # ... with 866 more rows
…
